{
  "lang": "pl",
  "owner": {
    "__typename": "DeveloperOwner",
    "id": "10556359",
    "account": {
      "type": "DEVELOPER",
      "name": "DEVELIA",
      "description": "",
      "photo": "https://ireland.apollo.olxcdn.com/v1/files/eyJhbGciOiJIUzI1NiIsInR5cCI6IkpXVCJ9.eyJmbiI6Im53M3U3YXpwaGdydS1BUEwifQ.Kqqhc3sedSGIF31aGPIywltZx5TCpNIJkz7_URkxfwI/image",
      "location": {
        "address": "ul. gen. Romualda Traugutta 45",
        "postalCode": "50-416",
        "name": "Wroc\u0142aw",
        "fullName": "Wroc\u0142aw, dolno\u015bl\u0105skie",
        "__typename": "AccountLocation"
      },
      "contacts": {
        "phone": "+48717988010",
        "alternativePhone": "+48717988010",
        "website": "https://develia.pl/",
        "__typename": "AccountContacts"
      },
      "attributes": {
        "slug": "develia-ID10556359",
        "__typename": "AccountAttributes"
      },
      "__typename": "Account"
    },
    "contacts": [],
    "statistics": {
      "activeAds": 3050,
      "__typename": "Statistics"
    },
    "sellerBadges": []
  },
  "searchAds": {
    "__typename": "FoundAds",
    "geometries": null,
    "locationsObjects": null,
    "items": [
      {
        "id": 67890030,
        "title": "Kijowska Vita",
        "slug": "kijowska-vita-ID4ARiu",
        "estate": "INVESTMENT",
        "transaction": "SELL",
        "location": {
          "mapDetails": {
            "radius": 0,
            "__typename": "MapDetails"
          },
          "address": {
            "street": {
              "name": "ul. Kijowska",
              "number": "",
              "__typename": "Street"
            },
            "city": {
              "name": "Warszawa",
              "__typename": "City"
            },
            "province": {
              "name": "mazowieckie",
              "__typename": "Province"
            },
            "__typename": "Address"
          },
          "reverseGeocoding": {
            "locations": [
              {
                "id": "mazowieckie",
                "fullName": "mazowieckie",
                "__typename": "BasicLocationObject"
              },
              {
                "id": "mazowieckie/warszawa/warszawa/warszawa",
                "fullName": "Warszawa, mazowieckie",
                "__typename": "BasicLocationObject"
              },
              {
                "id": "mazowieckie/warszawa/warszawa/warszawa/praga--polnoc",
                "fullName": "Praga-P\u00f3\u0142noc, Warszawa, mazowieckie",
                "__typename": "BasicLocationObject"
              },
              {
                "id": "mazowieckie/warszawa/warszawa/warszawa/praga--polnoc/szmulowizna",
                "fullName": "Szmulowizna, Praga-P\u00f3\u0142noc, Warszawa, mazowieckie",
                "__typename": "BasicLocationObject"
              }
            ],
            "__typename": "ReverseGeocoding"
          },
          "__typename": "LocationDetails"
        },
        "images": [
          {
            "medium": "https://ireland.apollo.olxcdn.com/v1/files/eyJmbiI6ImVneWlpZmJzb3E3ejEtRUNPU1lTVEVNIiwidyI6W3siZm4iOiJlbnZmcXFlMWF5NGsxLUFQTCIsInMiOiIxNCIsInAiOiIxMCwtMTAiLCJhIjoiMCJ9XX0.nnGQJqbVEpPjiPJ4n3SHCAmtGF8Pw3mNNekxA4Ru_A4/image;s=655x491;q=80",
            "large": "https://ireland.apollo.olxcdn.com/v1/files/eyJmbiI6ImVneWlpZmJzb3E3ejEtRUNPU1lTVEVNIiwidyI6W3siZm4iOiJlbnZmcXFlMWF5NGsxLUFQTCIsInMiOiIxNCIsInAiOiIxMCwtMTAiLCJhIjoiMCJ9XX0.nnGQJqbVEpPjiPJ4n3SHCAmtGF8Pw3mNNekxA4Ru_A4/image;s=1280x1024;q=80",
            "__typename": "AdImage"
          },
          {
            "medium": "https://ireland.apollo.olxcdn.com/v1/files/eyJmbiI6Im96NjluMGthdnFrbDItRUNPU1lTVEVNIiwidyI6W3siZm4iOiJlbnZmcXFlMWF5NGsxLUFQTCIsInMiOiIxNCIsInAiOiIxMCwtMTAiLCJhIjoiMCJ9XX0.KXsLC8WewxseP7PKqIgG7CpZVT1DA_JzZvwq_PEFnaU/image;s=655x491;q=80",
            "large": "https://ireland.apollo.olxcdn.com/v1/files/eyJmbiI6Im96NjluMGthdnFrbDItRUNPU1lTVEVNIiwidyI6W3siZm4iOiJlbnZmcXFlMWF5NGsxLUFQTCIsInMiOiIxNCIsInAiOiIxMCwtMTAiLCJhIjoiMCJ9XX0.KXsLC8WewxseP7PKqIgG7CpZVT1DA_JzZvwq_PEFnaU/image;s=1280x1024;q=80",
            "__typename": "AdImage"
          },
          {
            "medium": "https://ireland.apollo.olxcdn.com/v1/files/eyJmbiI6IjlqNnF0eG50aGoxMzEtRUNPU1lTVEVNIiwidyI6W3siZm4iOiJlbnZmcXFlMWF5NGsxLUFQTCIsInMiOiIxNCIsInAiOiIxMCwtMTAiLCJhIjoiMCJ9XX0.yNvCE8I5aWMZ4fbNIWmpjgmnBOkSPiHo51ZTJy7czZk/image;s=655x491;q=80",
            "large": "https://ireland.apollo.olxcdn.com/v1/files/eyJmbiI6IjlqNnF0eG50aGoxMzEtRUNPU1lTVEVNIiwidyI6W3siZm4iOiJlbnZmcXFlMWF5NGsxLUFQTCIsInMiOiIxNCIsInAiOiIxMCwtMTAiLCJhIjoiMCJ9XX0.yNvCE8I5aWMZ4fbNIWmpjgmnBOkSPiHo51ZTJy7czZk/image;s=1280x1024;q=80",
            "__typename": "AdImage"
          },
          {
            "medium": "https://ireland.apollo.olxcdn.com/v1/files/eyJmbiI6ImZzN2c5ajZmMW9lNjMtRUNPU1lTVEVNIiwidyI6W3siZm4iOiJlbnZmcXFlMWF5NGsxLUFQTCIsInMiOiIxNCIsInAiOiIxMCwtMTAiLCJhIjoiMCJ9XX0.fZHo-A6vuP_XR2A5R0YNGFLaNkAn2dT4EiM4E03H8Wc/image;s=655x491;q=80",
            "large": "https://ireland.apollo.olxcdn.com/v1/files/eyJmbiI6ImZzN2c5ajZmMW9lNjMtRUNPU1lTVEVNIiwidyI6W3siZm4iOiJlbnZmcXFlMWF5NGsxLUFQTCIsInMiOiIxNCIsInAiOiIxMCwtMTAiLCJhIjoiMCJ9XX0.fZHo-A6vuP_XR2A5R0YNGFLaNkAn2dT4EiM4E03H8Wc/image;s=1280x1024;q=80",
            "__typename": "AdImage"
          }
        ],
        "isExclusiveOffer": false,
        "openDays": "",
        "totalPrice": null,
        "rentPrice": null,
        "priceFromPerSquareMeter": {
          "value": 18349,
          "currency": "PLN",
          "__typename": "Money"
        },
        "pricePerSquareMeter": null,
        "areaInSquareMeters": null,
        "terrainAreaInSquareMeters": null,
        "roomsNumber": null,
        "floorNumber": null,
        "shortDescription": "1, 2, 3 i 4-pokojowe mieszkania od35m2 do85m2 w cenie od 734721 z\u0142 od dewelopera DEVELIAPark Skaryszewski (17 minut spacerem)P\u0119tla tramwajowa (1 minuta spacerem)Dworzec Warszawa Wschodnia, przystanki ...",
        "createdAtFirst": "2026-04-09T14:02:06Z",
        "hidePrice": false,
        "investmentState": "IN_BUILDING",
        "investmentUnitsAreaInSquareMeters": {
          "from": 35,
          "to": 85,
          "__typename": "InvestmentUnitsArea"
        },
        "peoplePerRoom": null,
        "investmentUnitsNumber": 73,
        "investmentUnitsRoomsNumber": {
          "min": "ONE",
          "max": "FOUR",
          "__typename": "InvestmentUnitsRoomsNumber"
        },
        "investmentEstimatedDelivery": {
          "quarter": 4,
          "year": 2027,
          "__typename": "InvestmentEstimatedDelivery"
        },
        "pushedUpAt": null,
        "__typename": "AdvertListItem",
        "specialOffer": null
      },
      {
        "id": 67888953,
        "title": "Pilczycka Vita",
        "slug": "pilczycka-vita-ID4AR17",
        "estate": "INVESTMENT",
        "transaction": "SELL",
        "location": {
          "mapDetails": {
            "radius": 0,
            "__typename": "MapDetails"
          },
          "address": {
            "street": {
              "name": "ul. Pilczycka",
              "number": "",
              "__typename": "Street"
            },
            "city": {
              "name": "Wroc\u0142aw",
              "__typename": "City"
            },
            "province": {
              "name": "dolno\u015bl\u0105skie",
              "__typename": "Province"
            },
            "__typename": "Address"
          },
          "reverseGeocoding": {
            "locations": [
              {
                "id": "dolnoslaskie",
                "fullName": "dolno\u015bl\u0105skie",
                "__typename": "BasicLocationObject"
              },
              {
                "id": "dolnoslaskie/wroclaw/wroclaw/wroclaw",
                "fullName": "Wroc\u0142aw, dolno\u015bl\u0105skie",
                "__typename": "BasicLocationObject"
              },
              {
                "id": "dolnoslaskie/wroclaw/wroclaw/wroclaw/fabryczna",
                "fullName": "Fabryczna, Wroc\u0142aw, dolno\u015bl\u0105skie",
                "__typename": "BasicLocationObject"
              },
              {
                "id": "dolnoslaskie/wroclaw/wroclaw/wroclaw/fabryczna/maslice",
                "fullName": "Ma\u015blice, Fabryczna, Wroc\u0142aw, dolno\u015bl\u0105skie",
                "__typename": "BasicLocationObject"
              }
            ],
            "__typename": "ReverseGeocoding"
          },
          "__typename": "LocationDetails"
        },
        "images": [
          {
            "medium": "https://ireland.apollo.olxcdn.com/v1/files/eyJmbiI6IjMwMGY4Nmt5NGF5di1FQ09TWVNURU0iLCJ3IjpbeyJmbiI6ImVudmZxcWUxYXk0azEtQVBMIiwicyI6IjE0IiwicCI6IjEwLC0xMCIsImEiOiIwIn1dfQ.tIrgBVAQ5KsN0yidyeTzi4Vf9b83pyjj2tPw-AtAT8w/image;s=655x491;q=80",
            "large": "https://ireland.apollo.olxcdn.com/v1/files/eyJmbiI6IjMwMGY4Nmt5NGF5di1FQ09TWVNURU0iLCJ3IjpbeyJmbiI6ImVudmZxcWUxYXk0azEtQVBMIiwicyI6IjE0IiwicCI6IjEwLC0xMCIsImEiOiIwIn1dfQ.tIrgBVAQ5KsN0yidyeTzi4Vf9b83pyjj2tPw-AtAT8w/image;s=1280x1024;q=80",
            "__typename": "AdImage"
          },
          {
            "medium": "https://ireland.apollo.olxcdn.com/v1/files/eyJmbiI6IjRxdGZ5cXRzeXU5ZDMtRUNPU1lTVEVNIiwidyI6W3siZm4iOiJlbnZmcXFlMWF5NGsxLUFQTCIsInMiOiIxNCIsInAiOiIxMCwtMTAiLCJhIjoiMCJ9XX0.UIlnrqQO7_CyiRZBGsQlCtFz0n0VleZI6OmwOCPHoLI/image;s=655x491;q=80",
            "large": "https://ireland.apollo.olxcdn.com/v1/files/eyJmbiI6IjRxdGZ5cXRzeXU5ZDMtRUNPU1lTVEVNIiwidyI6W3siZm4iOiJlbnZmcXFlMWF5NGsxLUFQTCIsInMiOiIxNCIsInAiOiIxMCwtMTAiLCJhIjoiMCJ9XX0.UIlnrqQO7_CyiRZBGsQlCtFz0n0VleZI6OmwOCPHoLI/image;s=1280x1024;q=80",
            "__typename": "AdImage"
          },
          {
            "medium": "https://ireland.apollo.olxcdn.com/v1/files/eyJmbiI6InJjN2psdGtheDE1My1FQ09TWVNURU0iLCJ3IjpbeyJmbiI6ImVudmZxcWUxYXk0azEtQVBMIiwicyI6IjE0IiwicCI6IjEwLC0xMCIsImEiOiIwIn1dfQ.yoGSojEM8fSczzxyjD_671N2gAZNyE-NG_o49bSsfEk/image;s=655x491;q=80",
            "large": "https://ireland.apollo.olxcdn.com/v1/files/eyJmbiI6InJjN2psdGtheDE1My1FQ09TWVNURU0iLCJ3IjpbeyJmbiI6ImVudmZxcWUxYXk0azEtQVBMIiwicyI6IjE0IiwicCI6IjEwLC0xMCIsImEiOiIwIn1dfQ.yoGSojEM8fSczzxyjD_671N2gAZNyE-NG_o49bSsfEk/image;s=1280x1024;q=80",
            "__typename": "AdImage"
          },
          {
            "medium": "https://ireland.apollo.olxcdn.com/v1/files/eyJmbiI6Im9ucHFtcnltbXllaC1FQ09TWVNURU0iLCJ3IjpbeyJmbiI6ImVudmZxcWUxYXk0azEtQVBMIiwicyI6IjE0IiwicCI6IjEwLC0xMCIsImEiOiIwIn1dfQ.jSGyejsi6LAHmAX0R8MMt5sAsn8Vm2irdQf-_kA489s/image;s=655x491;q=80",
            "large": "https://ireland.apollo.olxcdn.com/v1/files/eyJmbiI6Im9ucHFtcnltbXllaC1FQ09TWVNURU0iLCJ3IjpbeyJmbiI6ImVudmZxcWUxYXk0azEtQVBMIiwicyI6IjE0IiwicCI6IjEwLC0xMCIsImEiOiIwIn1dfQ.jSGyejsi6LAHmAX0R8MMt5sAsn8Vm2irdQf-_kA489s/image;s=1280x1024;q=80",
            "__typename": "AdImage"
          }
        ],
        "isExclusiveOffer": false,
        "openDays": "",
        "totalPrice": null,
        "rentPrice": null,
        "priceFromPerSquareMeter": {
          "value": 11798,
          "currency": "PLN",
          "__typename": "Money"
        },
        "pricePerSquareMeter": null,
        "areaInSquareMeters": null,
        "terrainAreaInSquareMeters": null,
        "roomsNumber": null,
        "floorNumber": null,
        "shortDescription": "1, 2, 3 i 4-pokojowe mieszkania od27m2 do90m2 w cenie od 439787 z\u0142 od dewelopera DEVELIAMieszkania wyposa\u017cone w instalacje smart homeGara\u017ce podziemne, miejsca z \u0142adowarkami do samochod\u00f3w elektrycznych...",
        "createdAtFirst": "2026-04-09T12:17:13Z",
        "hidePrice": false,
        "investmentState": "IN_BUILDING",
        "investmentUnitsAreaInSquareMeters": {
          "from": 27,
          "to": 90,
          "__typename": "InvestmentUnitsArea"
        },
        "peoplePerRoom": null,
        "investmentUnitsNumber": 182,
        "investmentUnitsRoomsNumber": {
          "min": "ONE",
          "max": "FOUR",
          "__typename": "InvestmentUnitsRoomsNumber"
        },
        "investmentEstimatedDelivery": {
          "quarter": 4,
          "year": 2027,
          "__typename": "InvestmentEstimatedDelivery"
        },
        "pushedUpAt": null,
        "__typename": "AdvertListItem",
        "specialOffer": null
      },
      {
        "id": 67835211,
        "title": "Sochaczewska Vita",
        "slug": "sochaczewska-vita-ID4AD2j",
        "estate": "INVESTMENT",
        "transaction": "SELL",
        "location": {
          "mapDetails": {
            "radius": 0,
            "__typename": "MapDetails"
          },
          "address": {
            "street": {
              "name": "ul. Sochaczewska",
              "number": "",
              "__typename": "Street"
            },
            "city": {
              "name": "Warszawa",
              "__typename": "City"
            },
            "province": {
              "name": "mazowieckie",
              "__typename": "Province"
            },
            "__typename": "Address"
          },
          "reverseGeocoding": {
            "locations": [
              {
                "id": "mazowieckie",
                "fullName": "mazowieckie",
                "__typename": "BasicLocationObject"
              },
              {
                "id": "mazowieckie/warszawa/warszawa/warszawa",
                "fullName": "Warszawa, mazowieckie",
                "__typename": "BasicLocationObject"
              },
              {
                "id": "mazowieckie/warszawa/warszawa/warszawa/bemowo",
                "fullName": "Bemowo, Warszawa, mazowieckie",
                "__typename": "BasicLocationObject"
              },
              {
                "id": "mazowieckie/warszawa/warszawa/warszawa/bemowo/chrzanow",
                "fullName": "Chrzan\u00f3w, Bemowo, Warszawa, mazowieckie",
                "__typename": "BasicLocationObject"
              }
            ],
            "__typename": "ReverseGeocoding"
          },
          "__typename": "LocationDetails"
        },
        "images": [
          {
            "medium": "https://ireland.apollo.olxcdn.com/v1/files/eyJmbiI6Im8zcnpwc21wNHBzeDEtRUNPU1lTVEVNIiwidyI6W3siZm4iOiJlbnZmcXFlMWF5NGsxLUFQTCIsInMiOiIxNCIsInAiOiIxMCwtMTAiLCJhIjoiMCJ9XX0.7Ax5OgYfFP56toOVM8zOzCu8Pjc9nhVJZunVHfzrxuc/image;s=655x491;q=80",
            "large": "https://ireland.apollo.olxcdn.com/v1/files/eyJmbiI6Im8zcnpwc21wNHBzeDEtRUNPU1lTVEVNIiwidyI6W3siZm4iOiJlbnZmcXFlMWF5NGsxLUFQTCIsInMiOiIxNCIsInAiOiIxMCwtMTAiLCJhIjoiMCJ9XX0.7Ax5OgYfFP56toOVM8zOzCu8Pjc9nhVJZunVHfzrxuc/image;s=1280x1024;q=80",
            "__typename": "AdImage"
          },
          {
            "medium": "https://ireland.apollo.olxcdn.com/v1/files/eyJmbiI6Inc0M2JjZjAyYmcwMTItRUNPU1lTVEVNIiwidyI6W3siZm4iOiJlbnZmcXFlMWF5NGsxLUFQTCIsInMiOiIxNCIsInAiOiIxMCwtMTAiLCJhIjoiMCJ9XX0.qWhzlLgw3aL5VJesoIlxMxbKoQPtOKdnl4fOd3wUwx8/image;s=655x491;q=80",
            "large": "https://ireland.apollo.olxcdn.com/v1/files/eyJmbiI6Inc0M2JjZjAyYmcwMTItRUNPU1lTVEVNIiwidyI6W3siZm4iOiJlbnZmcXFlMWF5NGsxLUFQTCIsInMiOiIxNCIsInAiOiIxMCwtMTAiLCJhIjoiMCJ9XX0.qWhzlLgw3aL5VJesoIlxMxbKoQPtOKdnl4fOd3wUwx8/image;s=1280x1024;q=80",
            "__typename": "AdImage"
          },
          {
            "medium": "https://ireland.apollo.olxcdn.com/v1/files/eyJmbiI6ImV5YXMwcDc2eWV5Zy1FQ09TWVNURU0iLCJ3IjpbeyJmbiI6ImVudmZxcWUxYXk0azEtQVBMIiwicyI6IjE0IiwicCI6IjEwLC0xMCIsImEiOiIwIn1dfQ.n-K8ZYv6BD8IOmDRHxwFngqfbBRZqJg3MyzMgK7KeTA/image;s=655x491;q=80",
            "large": "https://ireland.apollo.olxcdn.com/v1/files/eyJmbiI6ImV5YXMwcDc2eWV5Zy1FQ09TWVNURU0iLCJ3IjpbeyJmbiI6ImVudmZxcWUxYXk0azEtQVBMIiwicyI6IjE0IiwicCI6IjEwLC0xMCIsImEiOiIwIn1dfQ.n-K8ZYv6BD8IOmDRHxwFngqfbBRZqJg3MyzMgK7KeTA/image;s=1280x1024;q=80",
            "__typename": "AdImage"
          },
          {
            "medium": "https://ireland.apollo.olxcdn.com/v1/files/eyJmbiI6ImJhdXR2NGc1NnYwejItRUNPU1lTVEVNIiwidyI6W3siZm4iOiJlbnZmcXFlMWF5NGsxLUFQTCIsInMiOiIxNCIsInAiOiIxMCwtMTAiLCJhIjoiMCJ9XX0.eMhK23xo3klY7dDAqgsi38b8wV79GP44kr_GEMApl0A/image;s=655x491;q=80",
            "large": "https://ireland.apollo.olxcdn.com/v1/files/eyJmbiI6ImJhdXR2NGc1NnYwejItRUNPU1lTVEVNIiwidyI6W3siZm4iOiJlbnZmcXFlMWF5NGsxLUFQTCIsInMiOiIxNCIsInAiOiIxMCwtMTAiLCJhIjoiMCJ9XX0.eMhK23xo3klY7dDAqgsi38b8wV79GP44kr_GEMApl0A/image;s=1280x1024;q=80",
            "__typename": "AdImage"
          },
          {
            "medium": "https://ireland.apollo.olxcdn.com/v1/files/eyJmbiI6InZneGh5d2VqMHlwai1FQ09TWVNURU0iLCJ3IjpbeyJmbiI6ImVudmZxcWUxYXk0azEtQVBMIiwicyI6IjE0IiwicCI6IjEwLC0xMCIsImEiOiIwIn1dfQ.J6_IjhYYfmQlGOnhTQ-vpJg_ADaKS1NNNqyDWC4hNKI/image;s=655x491;q=80",
            "large": "https://ireland.apollo.olxcdn.com/v1/files/eyJmbiI6InZneGh5d2VqMHlwai1FQ09TWVNURU0iLCJ3IjpbeyJmbiI6ImVudmZxcWUxYXk0azEtQVBMIiwicyI6IjE0IiwicCI6IjEwLC0xMCIsImEiOiIwIn1dfQ.J6_IjhYYfmQlGOnhTQ-vpJg_ADaKS1NNNqyDWC4hNKI/image;s=1280x1024;q=80",
            "__typename": "AdImage"
          }
        ],
        "isExclusiveOffer": false,
        "openDays": "",
        "totalPrice": null,
        "rentPrice": null,
        "priceFromPerSquareMeter": null,
        "pricePerSquareMeter": null,
        "areaInSquareMeters": null,
        "terrainAreaInSquareMeters": null,
        "roomsNumber": null,
        "floorNumber": null,
        "shortDescription": "2, 3 i 4-pokojowe mieszkania od36m2 do82m2 od dewelopera DEVELIAPonadstandardowe przeszklenia w ka\u017cdym pokojuZielone dziedzi\u0144ce bez ruchu samochodowegoPrzy realizowanej stacji II linii metra KarolinPa...",
        "createdAtFirst": "2026-03-23T13:30:54Z",
        "hidePrice": true,
        "investmentState": "IN_BUILDING",
        "investmentUnitsAreaInSquareMeters": {
          "from": 36,
          "to": 82,
          "__typename": "InvestmentUnitsArea"
        },
        "peoplePerRoom": null,
        "investmentUnitsNumber": 42,
        "investmentUnitsRoomsNumber": {
          "min": "TWO",
          "max": "FOUR",
          "__typename": "InvestmentUnitsRoomsNumber"
        },
        "investmentEstimatedDelivery": {
          "quarter": 1,
          "year": 2028,
          "__typename": "InvestmentEstimatedDelivery"
        },
        "pushedUpAt": null,
        "__typename": "AdvertListItem",
        "specialOffer": null
      }
    ],
    "trackingSet": {
      "cat_l1_id": 11,
      "cat_l1_name": "Investment",
      "business": null,
      "selected_street_id": "",
      "selected_district_id": "",
      "selected_city_id": "",
      "selected_subregion_id": "",
      "selected_region_id": ""
    },
    "pagination": {
      "totalItems": 36,
      "totalPages": 12,
      "currentPage": 1,
      "itemsPerPage": 3,
      "__typename": "SearchPagination"
    }
  },
  "searchLinksRelatedLocations": {
    "__typename": "FoundLinksLocations",
    "items": [
      {
        "name": "dolno\u015bl\u0105skie",
        "estate": "INVESTMENT",
        "transaction": "SELL",
        "location": "dolnoslaskie",
        "count": null,
        "__typename": "LocationLink"
      },
      {
        "name": "kujawsko-pomorskie",
        "estate": "INVESTMENT",
        "transaction": "SELL",
        "location": "kujawsko--pomorskie",
        "count": null,
        "__typename": "LocationLink"
      },
      {
        "name": "\u0142\u00f3dzkie",
        "estate": "INVESTMENT",
        "transaction": "SELL",
        "location": "lodzkie",
        "count": null,
        "__typename": "LocationLink"
      },
      {
        "name": "lubelskie",
        "estate": "INVESTMENT",
        "transaction": "SELL",
        "location": "lubelskie",
        "count": null,
        "__typename": "LocationLink"
      },
      {
        "name": "lubuskie",
        "estate": "INVESTMENT",
        "transaction": "SELL",
        "location": "lubuskie",
        "count": null,
        "__typename": "LocationLink"
      },
      {
        "name": "ma\u0142opolskie",
        "estate": "INVESTMENT",
        "transaction": "SELL",
        "location": "malopolskie",
        "count": null,
        "__typename": "LocationLink"
      },
      {
        "name": "mazowieckie",
        "estate": "INVESTMENT",
        "transaction": "SELL",
        "location": "mazowieckie",
        "count": null,
        "__typename": "LocationLink"
      },
      {
        "name": "opolskie",
        "estate": "INVESTMENT",
        "transaction": "SELL",
        "location": "opolskie",
        "count": null,
        "__typename": "LocationLink"
      },
      {
        "name": "podkarpackie",
        "estate": "INVESTMENT",
        "transaction": "SELL",
        "location": "podkarpackie",
        "count": null,
        "__typename": "LocationLink"
      },
      {
        "name": "podlaskie",
        "estate": "INVESTMENT",
        "transaction": "SELL",
        "location": "podlaskie",
        "count": null,
        "__typename": "LocationLink"
      },
      {
        "name": "pomorskie",
        "estate": "INVESTMENT",
        "transaction": "SELL",
        "location": "pomorskie",
        "count": null,
        "__typename": "LocationLink"
      },
      {
        "name": "\u015bl\u0105skie",
        "estate": "INVESTMENT",
        "transaction": "SELL",
        "location": "slaskie",
        "count": null,
        "__typename": "LocationLink"
      },
      {
        "name": "\u015bwi\u0119tokrzyskie",
        "estate": "INVESTMENT",
        "transaction": "SELL",
        "location": "swietokrzyskie",
        "count": null,
        "__typename": "LocationLink"
      },
      {
        "name": "warmi\u0144sko-mazurskie",
        "estate": "INVESTMENT",
        "transaction": "SELL",
        "location": "warminsko--mazurskie",
        "count": null,
        "__typename": "LocationLink"
      },
      {
        "name": "wielkopolskie",
        "estate": "INVESTMENT",
        "transaction": "SELL",
        "location": "wielkopolskie",
        "count": null,
        "__typename": "LocationLink"
      },
      {
        "name": "zachodniopomorskie",
        "estate": "INVESTMENT",
        "transaction": "SELL",
        "location": "zachodniopomorskie",
        "count": null,
        "__typename": "LocationLink"
      }
    ]
  },
  "formData": {
    "estate": {
      "label": "GYXaW",
      "value": "INVESTMENT"
    },
    "transaction": {
      "label": "GYVkh",
      "value": "SELL"
    },
    "roomsNumber": [],
    "market": {
      "label": "GYVkb",
      "value": "ALL"
    },
    "locations": null,
    "distanceRadius": 0,
    "priceMin": null,
    "priceMax": null,
    "areaMin": null,
    "areaMax": null,
    "hasDiscount": null,
    "investmentState": null
  },
  "sortingOption": {
    "by": "DEFAULT",
    "direction": "ASC"
  },
  "filterLocations": null,
  "filterAttributes": {
    "sellerId": "10556359",
    "estate": "INVESTMENT",
    "transaction": "SELL",
    "roomsNumber": [],
    "market": "ALL",
    "distanceRadius": 0,
    "priceMin": null,
    "priceMax": null,
    "areaMin": null,
    "areaMax": null,
    "hasDiscount": null,
    "investmentState": null
  },
  "mapBoundingBox": {
    "__typename": "FoundMapPins",
    "boundingBox": {
      "neLat": 54.538700000000006,
      "neLng": 21.172539999999998,
      "swLat": 50.015319999999996,
      "swLng": 16.84964,
      "__typename": "BoundingBox"
    }
  },
  "urlViewType": "listing",
  "tracking": {
    "ad_impressions": [
      67890030,
      67888953,
      67835211
    ],
    "business": "INVESTMENT",
    "cat_l1_id": 11,
    "cat_l1_name": "investment",
    "listing_format": "list",
    "order_by": "default_asc",
    "page_count": 12,
    "page_nb": 1,
    "result_count": 36,
    "results_per_page": 3,
    "selected_locations_id": null,
    "market": "primary or secondary",
    "seller_id": "10556359",
    "poster_type": "developer"
  },
  "ownerStatistics": {
    "__typename": "Statistics",
    "rentAds": null,
    "investmentAds": 36,
    "sellAds": 3014,
    "citiesWithAds": 7,
    "createdAt": "2025-01-14"
  },
  "mapPreviewImages": [
    {
      "url": "https://maps.googleapis.com/maps/api/staticmap?path=Poland&zoom=6&language=pl&size=640x200&key=AIzaSyBCdQIX4zq9wY3GFTVJpB_qC8U7iAM2Ong&scale=2&signature=dLqA-9tBXLOX4ajZTQKCggKSs0o=",
      "width": 640,
      "height": 200
    },
    {
      "url": "https://maps.googleapis.com/maps/api/staticmap?path=Poland&zoom=6&language=pl&size=640x140&key=AIzaSyBCdQIX4zq9wY3GFTVJpB_qC8U7iAM2Ong&scale=2&signature=9oC96CRNqjXtFrh_klTMzDnvRqA=",
      "width": 640,
      "height": 140
    },
    {
      "url": "https://maps.googleapis.com/maps/api/staticmap?path=Poland&zoom=6&language=pl&size=640x190&key=AIzaSyBCdQIX4zq9wY3GFTVJpB_qC8U7iAM2Ong&scale=2&signature=fdAeE97qogc_TnLy6KpMu_k-1Bc=",
      "width": 640,
      "height": 190
    }
  ],
  "currentUser": null,
  "viewMode": "default",
  "cookiesCategorisation": {
    "eupubconsent-v2": [
      "C0001"
    ],
    "OptanonAlertBoxClosed": [
      "C0001"
    ],
    "OptanonConsent": [
      "C0001"
    ],
    "OTAdditionalConsentString": [
      "C0001"
    ],
    "access_token": [
      "C0001"
    ],
    "id_token": [
      "C0001"
    ],
    "refresh_token": [
      "C0001"
    ],
    "microservice_token": [
      "C0001"
    ],
    "lastoAuthState": [
      "C0001"
    ],
    "PHPSESSID": [
      "C0001"
    ],
    "laquesis": [
      "C0001"
    ],
    "laquesisff": [
      "C0001"
    ],
    "laquesisqa": [
      "C0001"
    ],
    "laquesissu": [
      "C0001"
    ],
    "lqonap": [
      "C0001"
    ],
    "lqstatus": [
      "C0001"
    ],
    "test": [
      "C0001"
    ],
    "onap": [
      "C0001"
    ],
    "onap_dev": [
      "C0001"
    ],
    "lang": [
      "C0001"
    ],
    "dfp_user_id": [
      "C0004"
    ],
    "AuthState": [
      "C0001"
    ],
    "SID": [
      "C0001"
    ],
    "IDPState": [
      "C0001"
    ],
    "LogoutState": [
      "C0001"
    ],
    "datadome": [
      "C0001"
    ],
    "ldctx": [
      "C0002"
    ],
    "ldff": [
      "C0002"
    ],
    "aws-waf-token": [
      "C0001"
    ],
    "thememode": [
      "C0003"
    ],
    "idccsrf": [
      "C0001"
    ],
    "nsr": [
      "C0001"
    ],
    "O_N": [
      "C0003"
    ],
    "O_Y": [
      "C0002"
    ],
    "O_X": [
      "C0002"
    ],
    "O_LOGGED": [
      "C0003"
    ],
    "hotjarSurvey": [
      "C0004"
    ],
    "contentmode": [
      "C0001"
    ]
  },
  "experiments": {},
  "featureFlags": {
    "isAdAvmModuleEnabled": true,
    "isGenaiAd2videoEnabled": true,
    "shouldEnableAd2VideoPreview": true,
    "isAdFinanceBannerEnabled": true,
    "isAdFinanceLinkEnabled": true,
    "isAdMortgageSimulatorEnabled": true,
    "isAdNeighborhoodPoisEnabled": false,
    "isListingRentPriceEnabled": true,
    "isBikPromotionEnabled": true,
    "isSeoAdsDescriptionEnabled": true,
    "isPropertyEvaluationPageActive": true,
    "isRESellerLeadsActive": false,
    "isSellerLeadsMvpEnabled": false,
    "isXmlReportEnabled": true,
    "isOneProductPostingFormEnabled": true,
    "isAgentAccountMailboxEnabled": true,
    "isDeveloperGeoPricingEnabled": true,
    "isIntegrationPageEnabled": true,
    "isNinFieldEnabledForInvoicing": false,
    "isMandatoryLoginEnabled": true,
    "isGeoBasedPricingEnabled": true,
    "isMyAccountPDFReportsEnabled": true,
    "isReCaptchaEnabled": true,
    "isAgencyInvoiceReportEnabled": false,
    "isRECsrfEnabled": true,
    "isNexusDeveloperRegistrationFormEnabled": true,
    "isAgencyPortfolioValuePricingEnabled": true,
    "isAgencyPortfolioBufferEnabled": false,
    "isBadgesFeatureEnabled": true,
    "isInboxCrmIdFilteringEnabled": true,
    "isDashboardWithStatisticsEnabled": false,
    "isConciergeMigrationPageEnabled": false,
    "isAIAssistantChatEnabled": true,
    "arePaymentReminderBannersEnabled": true,
    "isSapBlackoutBannerEnabled": false,
    "isPowerVasOnboardingCampaignEnabled": false,
    "isEnhancedAgentActivationEnabled": true,
    "shouldShowExternalDeveloperLink": false,
    "isPowerVasCardDisplayEnabled": true,
    "isAgentPermissionsPageEnabled": true,
    "isSecondStepOfBusinessAccountVerificationRemoved": false,
    "isPowerVasGroupEnabled": true,
    "shouldUseUnifiedAdSchema": true,
    "isNoPhotobookingOnImovirtualPricingEnabled": true,
    "isEInvoicingEnabled": true,
    "isNinjaBetaVersionEnabled": true,
    "hasBusinessRegistrationFlowBeenEnhanced": true,
    "isSelfRefCanonicalLinkLublinOpoleEnabled": false,
    "areCityLevelLinksKoninSkierniewiceEnabled": false,
    "isNexusPromotePageEnabled": false,
    "isVasAutoRenewalEnabled": true,
    "isPostingFormAgentAccountEnabled": true,
    "isPostingFormFreeTextStreetEnabled": false,
    "isAdsAIEnrichmentEnabled": true,
    "isEnhancedAgentDeletionEnabled": true,
    "areAccountLevelStatisticsForAgentsEnabled": true,
    "areAdLevelStatisticsEnabled": false,
    "isOurTeamPendingTabEnhanced": false,
    "isPlDynamicMetaTemplatesEnabled": false,
    "isCompaniesListingPageEnabled": true,
    "isDynamicFaqEnabled": true,
    "isLoginDataPageEnabled": false,
    "isNexusBillingPageEnabled": false,
    "isTranslateErrorLoggerEnabled": false,
    "isTranslateErrorFixEnabled": false,
    "__typename": "FeatureFlags"
  },
  "laquesisResult": null,
  "userSessionId": "f0dc8212-fcab-4327-bf8c-d9821b0e8b71",
  "unconfirmedUserAuthToken": null,
  "desktopHeader": {
    "Is-Desktop": "true"
  }
}